<?xml version="1.0" encoding="iso-8859-1"?>
<!-- Generator: Adobe Illustrator 19.0.0, SVG Export Plug-In . SVG Version: 6.00 Build 0)  -->
<svg xmlns="http://www.w3.org/2000/svg" xmlns:xlink="http://www.w3.org/1999/xlink" version="1.1" id="Capa_1" x="0px" y="0px" viewBox="0 0 480 480" style="enable-background:new 0 0 480 480;" xml:space="preserve" width="512px" height="512px">
<g>
	<g>
		<path d="M207.808,400c-2.049-40.003-24.12-76.279-58.704-96.488l-55.264-61.4c-7.433-8.422-18.961-11.964-29.84-9.168V128    c0-17.673-14.327-32-32-32S0,110.327,0,128v151.416c0.008,12.241,3.127,24.279,9.064,34.984L80,442.072V472c0,4.418,3.582,8,8,8    h112c4.418,0,8-3.582,8-8v-72H207.808z M192,464H96v-24c0-1.361-0.347-2.699-1.008-3.888L23.048,306.616    c-4.614-8.324-7.039-17.683-7.048-27.2V128c0-8.837,7.163-16,16-16s16,7.163,16,16v114.824    c-10.01,11.633-9.78,28.902,0.536,40.264L114.08,355.2l11.84-10.768l-65.544-72.104c-5.224-5.746-5.013-14.583,0.48-20.072    c5.674-5.679,14.878-5.683,20.557-0.008c0.185,0.185,0.364,0.374,0.539,0.568l56.104,62.336c0.714,0.718,1.521,1.337,2.4,1.84    c31.839,18.243,51.497,52.113,51.544,88.808V464z" fill="#5c986a"/>
	</g>
</g>
<g>
	<g>
		<path d="M448,96c-17.673,0-32,14.327-32,32v104.944c-2.593-0.656-5.261-0.973-7.936-0.944    c-8.386,0.187-16.318,3.846-21.904,10.104l-55.248,61.384c-34.631,20.175-56.721,56.483-58.72,96.512H272v72c0,4.418,3.582,8,8,8    h112c4.418,0,8-3.582,8-8v-29.944l70.056-126.976c6.507-11.065,9.94-23.667,9.944-36.504V128C480,110.327,465.673,96,448,96z     M464,278.576c-0.012,10.057-2.719,19.928-7.84,28.584l-71.2,128.976c-0.641,1.187-0.971,2.516-0.96,3.864v24h-96v-58.2    c0.098-36.838,19.923-70.801,51.952-89c0.745-0.423,1.418-0.963,1.992-1.6l56.104-62.4c5.388-5.965,14.591-6.432,20.556-1.044    c5.965,5.388,6.432,14.591,1.044,20.556l-65.568,72.104l11.84,10.784l65.544-72.096c10.326-11.365,10.555-28.645,0.536-40.28V128    c0-8.837,7.163-16,16-16s16,7.163,16,16V278.576z" fill="#5c986a"/>
	</g>
</g>
<g>
	<g>
		<path d="M336,200h-16c-28.698,0.031-55.575,14.067-72,37.6V184h8c48.577-0.057,87.943-39.423,88-88c0-4.418-3.582-8-8-8h-16    c-28.698,0.031-55.575,14.067-72,37.6V72h8c35.33-0.04,63.96-28.67,64-64c0-4.418-3.582-8-8-8h-16    c-23.298,0.014-44.747,12.688-56,33.088C228.747,12.688,207.298,0.014,184,0h-16c-4.418,0-8,3.582-8,8    c0.04,35.33,28.67,63.96,64,64h8v53.6c-16.425-23.533-43.302-37.569-72-37.6h-16c-4.418,0-8,3.582-8,8    c0.057,48.577,39.423,87.943,88,88h8v53.6c-16.425-23.533-43.302-37.569-72-37.6h-16c-4.418,0-8,3.582-8,8    c0.057,48.577,39.423,87.943,88,88h8v64h16v-64h8c48.577-0.057,87.943-39.423,88-88C344,203.582,340.418,200,336,200z M320,104    h7.56c-4.12,36.421-34.907,63.956-71.56,64h-7.56C252.56,131.579,283.347,104.044,320,104z M296,16h7.336    C299.401,39.08,279.413,55.971,256,56h-7.336C252.599,32.92,272.587,16.029,296,16z M224,56c-23.413-0.029-43.401-16.92-47.336-40    H184c23.413,0.029,43.401,16.92,47.336,40H224z M224,168c-36.653-0.044-67.44-27.579-71.56-64H160    c36.653,0.044,67.44,27.579,71.56,64H224z M224,280c-36.653-0.044-67.44-27.579-71.56-64H160c36.653,0.044,67.44,27.579,71.56,64    H224z M256,280h-7.56c4.12-36.421,34.907-63.956,71.56-64h7.56C323.44,252.421,292.653,279.956,256,280z" fill="#5c986a"/>
	</g>
</g>
<g>
</g>
<g>
</g>
<g>
</g>
<g>
</g>
<g>
</g>
<g>
</g>
<g>
</g>
<g>
</g>
<g>
</g>
<g>
</g>
<g>
</g>
<g>
</g>
<g>
</g>
<g>
</g>
<g>
</g>
</svg>
